Stat 220 – Intro to Databases
…
Relational databases

Most databases contain multiple tables that are linked together via keys

nycflights23::flights %>%
  select(origin, dest, arr_delay, sched_arr_time)

# A tibble: 435,352 × 4
   origin dest  arr_delay sched_arr_time
   <chr>  <chr>     <dbl>          <int>
 1 EWR    SMF         205              3
 2 JFK    ATL          53            135
 3 JFK    BQN          34            426
 4 JFK    CHS         166           2352
 5 EWR    DTW         211           2252
 6 EWR    MIA          -7            815
 7 JFK    BQN          -1            949
 8 EWR    ORD         -25            710
 9 EWR    IAH          68            818
10 EWR    FLL          -7            852
# ℹ 435,342 more rows

nycflights23::airports %>%
  select(faa, name)

# A tibble: 1,251 × 2
   faa   name                               
   <chr> <chr>                              
 1 AAF   Apalachicola Regional Airport      
 2 AAP   Andrau Airpark                     
 3 ABE   Lehigh Valley International Airport
 4 ABI   Abilene Regional Airport           
 5 ABL   Ambler Airport                     
 6 ABQ   Albuquerque International Sunport  
 7 ABR   Aberdeen Regional Airport          
 8 ABY   Southwest Georgia Regional Airport 
 9 ACK   Nantucket Memorial Airport         
10 ACT   Waco Regional Airport              
# ℹ 1,241 more rows

Relational databases

Most databases contain multiple tables that are linked together via keys

survivoR::castaways

# A tibble: 1,351 × 4
   season castaway_id castaway city         
    <dbl> <chr>       <chr>    <chr>        
 1      1 US0001      Sonja    Walnut Creek 
 2      1 US0002      B.B.     Mission Hills
 3      1 US0003      Stacey   San Francisco
 4      1 US0004      Ramona   Edison       
 5      1 US0005      Dirk     Spring Green 
 6      1 US0006      Joel     Sherwood     
 7      1 US0007      Gretchen Clarksville  
 8      1 US0008      Greg     Gold Hill    
 9      1 US0009      Jenna    Franklin     
10      1 US0010      Gervase  Willingboro  
# ℹ 1,341 more rows

survivoR::confessionals

# A tibble: 12,853 × 4
   season episode castaway_id count
    <dbl>   <dbl> <chr>       <dbl>
 1      1       1 US0001          2
 2      1       1 US0002          3
 3      1       1 US0003          1
 4      1       1 US0004          2
 5      1       1 US0005          1
 6      1       1 US0006          2
 7      1       1 US0007          1
 8      1       1 US0008          0
 9      1       1 US0009          0
10      1       1 US0010          0
# ℹ 12,843 more rows
…
